{
    "name": "LaporanPenyewaan",
    "alias": "laporanpenyewaan",
    "description": "",
    "keywords": [],
    "priority": 0,
    "providers": [
        "Modules\\LaporanPenyewaan\\Providers\\LaporanPenyewaanServiceProvider"
    ],
    "aliases": {},
    "files": [],
    "requires": []
}
