{
    "name": "VerifikasiTransaksiPenyewaan",
    "alias": "verifikasitransaksipenyewaan",
    "description": "",
    "keywords": [],
    "priority": 0,
    "providers": [
        "Modules\\VerifikasiTransaksiPenyewaan\\Providers\\VerifikasiTransaksiPenyewaanServiceProvider"
    ],
    "aliases": {},
    "files": [],
    "requires": []
}
